{
    "KPlugin": {
        "Authors": [
            {
                "Email": "aseigo@kde.org",
                "Name": "Aaron Seigo",
                "Name[ar]": "Aaron Seigo",
                "Name[az]": "Aaron Seigo",
                "Name[bg]": "Aaron Seigo",
                "Name[ca@valencia]": "Aaron Seigo",
                "Name[ca]": "Aaron Seigo",
                "Name[cs]": "Aaron Seigo",
                "Name[da]": "Aaron Seigo",
                "Name[de]": "Aaron Seigo",
                "Name[el]": "Aaron Seigo",
                "Name[en_GB]": "Aaron Seigo",
                "Name[es]": "Aaron Seigo",
                "Name[et]": "Aaron Seigo",
                "Name[eu]": "Aaron Seigo",
                "Name[fi]": "Aaron Seigo",
                "Name[fr]": "Aaron Seigo",
                "Name[gl]": "Aaron Seigo",
                "Name[hu]": "Aaron Seigo",
                "Name[ia]": "Aaron Seigo",
                "Name[id]": "Aaron Seigo",
                "Name[it]": "Aaron Seigo",
                "Name[ka]": "Aaron Seigo",
                "Name[ko]": "Aaron Seigo",
                "Name[lt]": "Aaron Seigo",
                "Name[nl]": "Aaron Seigo",
                "Name[nn]": "Aaron Seigo",
                "Name[pl]": "Aaron Seigo",
                "Name[pt]": "Aaron Seigo",
                "Name[pt_BR]": "Aaron Seigo",
                "Name[ro]": "Aaron Seigo",
                "Name[ru]": "Aaron Seigo",
                "Name[sk]": "Aaron Seigo",
                "Name[sl]": "Aaron Seigo",
                "Name[sr@ijekavian]": "Арон Џ. Сајго",
                "Name[sr@ijekavianlatin]": "Aron Dž. Sajgo",
                "Name[sr@latin]": "Aron Dž. Sajgo",
                "Name[sr]": "Арон Џ. Сајго",
                "Name[sv]": "Aaron Seigo",
                "Name[tg]": "Аарон Сейго (Aaron Seigo)",
                "Name[tr]": "Aaron Seigo",
                "Name[uk]": "Aaron Seigo",
                "Name[vi]": "Aaron Seigo",
                "Name[x-test]": "xxAaron Seigoxx",
                "Name[zh_CN]": "Aaron Seigo",
                "Name[zh_TW]": "Aaron Seigo"
            }
        ],
        "Category": "Examples",
        "Description": "A DataEngine example showing how to respond to requests for source creation and updates",
        "Description[az]": "Mənbə yaradılması və yeniləmə tələblərinə necə cavab veriləcəyini göstərən bir DataEngine nümunəsi",
        "Description[bg]": "Пример за DataEngine, показващ как да се отговори на заявки за създаване на източник и актуализации",
        "Description[ca@valencia]": "Un exemple de «DataEngine» que mostra com respondre a peticions de creació i actualització de les fonts",
        "Description[ca]": "Un exemple de «DataEngine» que mostra com respondre a peticions de creació i actualització de les fonts",
        "Description[en_GB]": "A DataEngine example showing how to respond to requests for source creation and updates",
        "Description[es]": "Un ejemplo de motor de datos que muestra cómo responder a peticiones de creación y actualización de fuentes",
        "Description[eu]": "Sorburu sorrera eta eguneratze eskaerei nola erantzun erakusten duen «DataEngine»ren adibide bat",
        "Description[fi]": "Tietomoottoriesimerkki siitä, miten vastata lähteiden luonti- ja päivityspyyntöihin",
        "Description[fr]": "Un moteur de données montrant comme répondre aux demandes de créations et de mises à jour de sources",
        "Description[ia]": "Un exemplo de dataEngine (motor de datos) monstrante como responder a requestas de creation de fonte e actualisationes",
        "Description[id]": "Contoh DataEngine yang menunjukkan cara menanggapi permintaan untuk pembuatan dan pembaruan sumber",
        "Description[it]": "Un esempio di motore di dati che mostra come rispondere alle richieste di creazione di fonti e aggiornamenti",
        "Description[ka]": "DataEngine-ის მაგალითი, რომელიც გაჩვენებთ, როგორ უნდა უპასუხოს წყაროს შექმნისა და განახლების მოთხოვნებს",
        "Description[ko]": "원본 생성과 업데이트에 반응할 방법에 대한 데이터 엔진 예제",
        "Description[nl]": "Een voorbeeld van een gegevens-engine die toont hoe te antwoorden op verzoeken voor aanmaken van een bron en bijwerken",
        "Description[nn]": "Eit «DataEngine»-eksempel som viser korleis svara på førespurnadar om oppretting og oppdatering av kjelder",
        "Description[pl]": "Przykład silnika danych pokazujący sposób odpowiedzi na żądanie utworzenia źródła i uaktualnienia",
        "Description[pt]": "Um exemplo de DataEngine que mostra como responder aos pedidos de criação e actualização das fontes",
        "Description[ru]": "Пример источника данных Plasma, показывающий, как обрабатывать запросы на создание и обновление источника.",
        "Description[sl]": "Primer podatkovnega stroja, ki prikazuje kako se odzivati na zahtevke po ustvarjanju vira in osvežitve",
        "Description[sv]": "Ett exempel på en DataEngine som visar hur man svara på en begäran om att skapa källor och uppdateringar",
        "Description[tr]": "Kaynak oluşturumu ve güncellemeler için isteklere nice yanıt verileceğini gösteren bir DataEngine örneği",
        "Description[uk]": "Приклад рушія даних, який демонструє способи відповіді на запити щодо створення джерела і оновлень",
        "Description[vi]": "Một ví dụ về DataEngine cho thấy cách hồi đáp các yêu cầu tạo và cập nhật nguồn",
        "Description[x-test]": "xxA DataEngine example showing how to respond to requests for source creation and updatesxx",
        "Description[zh_CN]": "展示如何响应源的创建和更新请求的数据引擎示例程序",
        "EnabledByDefault": true,
        "Icon": "plasma",
        "Id": "org.kde.examples.sourcesOnRequest",
        "License": "BSD",
        "Name": "Sources On Request",
        "Name[az]": "Istək üzrə mənbələr",
        "Name[bg]": "Източници при поискване",
        "Name[ca@valencia]": "Fonts a demanda",
        "Name[ca]": "Fonts a demanda",
        "Name[en_GB]": "Sources On Request",
        "Name[es]": "Fuentes bajo demanda",
        "Name[eu]": "Sorburuak eskatu ahala",
        "Name[fi]": "Lähteitä pyynnöstä",
        "Name[fr]": "Sources à la demande",
        "Name[ia]": "Fontes sur requesta",
        "Name[id]": "Sumber Berdasarkan Permintaan",
        "Name[it]": "Fonti su richiesta",
        "Name[ka]": "კოდი მოთხოვნით",
        "Name[ko]": "요청 시 원본 제공",
        "Name[nl]": "Bronnen op verzoek",
        "Name[nn]": "Kjelder på førespurnad",
        "Name[pl]": "Źródła na żądanie",
        "Name[pt]": "Fontes a Pedido",
        "Name[ru]": "Источники по запросу",
        "Name[sl]": "Viri na zahtevo",
        "Name[sv]": "Källor på begäran",
        "Name[tr]": "İsteğe Bağlı Kaynaklar",
        "Name[uk]": "Джерела за запитом",
        "Name[vi]": "Nguồn khi có yêu cầu",
        "Name[x-test]": "xxSources On Requestxx",
        "Name[zh_CN]": "按需请求源",
        "ServiceTypes": [
            "Plasma/DataEngine"
        ],
        "Version": "1.0",
        "Website": "https://plasma.kde.org/"
    }
}
